name,id,metanetx,inchi_key,charge,pKd,Mg,protonation
G6P,152,MNXM104218,NBSCHQHZLSJFNQ-GASJEMHNSA-L,-2,2.6,1,0
F6P,125172,MNXM512144,"BGWGXPAPYGQALX-VRPWFDPXSA-N
",-2,3.32,1,0
FBP,29413,MNXM53918,RNBGYGVWRKECFJ-ZXXMMSQZSA-J,-4,3.75,1,0
DHAP,74,MNXM89608,GNGACRATGGDKBX-UHFFFAOYSA-L,-2,2.0,1,0
GAP,71,MNXM2378,LXJXRIRHZLFYRP-VKHMYHEASA-L,-2,1.63,1,0
BPG,248,MNXM89706,LJQLQCAXBUHEAZ-UWTATZPHSA-J,-4,3.75,1,0
3PG,131805,MNXM89659,OSJPPGNTCRNQQC-UHFFFAOYSA-K,-3,2.84,1,0
2PG,261,MNXM89684,GXIURPTVHJPJLF-UWTATZPHSA-K,-3,3.31,1,0
PEP,70,MNXM89641,DTBNBXWJWCWCIK-UHFFFAOYSA-K,-3,2.26,1,0
Pyr,25,MNXM162379,LCTONWCANYUPML-UHFFFAOYSA-M,-1,1.53,1,0
Lac,343,MNXM362,GUBGYTABKSRVRQ-QKKXKWKRSA-N,-1,1.37,1,0
ATP,6,MNXM114062,ZKHQWZAMYRWXGA-KQYNXXCUSA-J,-4,6.18,1,0
HATP,6,MNXM114062,ZKHQWZAMYRWXGA-KQYNXXCUSA-J,-3,3.63,1,1
ADP,10,MNXM89554,XTWYTFMLZFPYCI-KQYNXXCUSA-K,-4,4.65,1,0
HADP,10,MNXM89554,XTWYTFMLZFPYCI-KQYNXXCUSA-K,-3,2.5,1,1
NAD,11,MNXM588016,BAWFJGJZGIEFAR-NNYOXOHSSA-M,-2,1.55,1,0
NADH,11,MNXM588016,BAWFJGJZGIEFAR-NNYOXOHSSA-M,-2,1.58,1,1
HPO4,12,MNXM104569,NBIIXXVUZAFLBC-UHFFFAOYSA-L,-2,2.71,1,-2
ATP,6,MNXM114062,ZKHQWZAMYRWXGA-KQYNXXCUSA-J,-4,1.55,1,0
